Data Analysis Using Statistical Packages: Organizing and Visualizing Data
…
性別と客室等級と年齢層ごとの生存率．

titanic %>% 
  mutate(age_group = cut(age, breaks = c(0, 20, 60, 100), right = FALSE)) %>% 
  group_by(sex, pclass, age_group) %>%
  summarise(survival_rate = mean(survived), 
            sample_size = n()) 

## # A tibble: 24 × 5
## # Groups:   sex, pclass [6]
##    sex    pclass age_group survival_rate sample_size
##    <chr>   <int> <fct>             <dbl>       <int>
##  1 female      1 [0,20)            0.938          16
##  2 female      1 [20,60)           0.972         108
##  3 female      1 [60,100)          0.889           9
##  4 female      1 <NA>              1              11
##  5 female      2 [0,20)            0.958          24
##  6 female      2 [20,60)           0.885          78
##  7 female      2 [60,100)          0               1
##  8 female      2 <NA>              0.667           3
##  9 female      3 [0,20)            0.540          63
## 10 female      3 [20,60)           0.420          88
## # ℹ 14 more rows
…
